Basic Usage • twoxtwo
…
The usage demonstration below requires that the twoxtwo and dplyr packages are loaded:

library(twoxtwo)
library(dplyr)

The data set used to illustrate the twoxtwo functions will be observation-level data describing smoking status (exposure) and high blood pressure (outcome). For this example, there will be 100 smokers and 200 non-smokers. Of the smokers, 40 will have high blood pressure. 50 of the non-smokers will have high blood pressure:

sh <-
  tibble(
    smoke = c(rep(TRUE, 100), rep(FALSE,200)),
    hbp = c(rep(1,40),rep(0,60),rep(1,50),rep(0,150))
    )

sh
# # A tibble: 300 × 2
#    smoke   hbp
#    <lgl> <dbl>
#  1 TRUE      1
#  2 TRUE      1
#  3 TRUE      1
#  4 TRUE      1
#  5 TRUE      1
#  6 TRUE      1
#  7 TRUE      1
#  8 TRUE      1
#  9 TRUE      1
# 10 TRUE      1
# # … with 290 more rows
…
To view the number of observations missing either exposure or outcome:

sh_2x2$n_missing
# [1] 0

And to view the original data (stored in the twoxtwo object by default1):

sh_2x2$data
# # A tibble: 300 × 2
#    smoke   hbp
#    <lgl> <dbl>
#  1 TRUE      1
#  2 TRUE      1
#  3 TRUE      1
#  4 TRUE      1
#  5 TRUE      1
#  6 TRUE      1
#  7 TRUE      1
#  8 TRUE      1
#  9 TRUE      1
# 10 TRUE      1
# # … with 290 more rows
…
